<?xml version="1.0" encoding="utf-8"?>
<COLLADA xmlns="http://www.collada.org/2005/11/COLLADASchema" version="1.4.1">
<asset>
	<contributor>
		<author>Anonymous</author>
		<authoring_tool>Collada Exporter for Blender 2.6+, by Juan Linietsky (juan@codenix.com)</authoring_tool>
	</contributor>
	<created>2019-08-21T20:39:32Z</created>
	<modified>2019-08-21T20:39:32Z</modified>
	<unit meter="1.0" name="meter"/>
	<up_axis>Z_UP</up_axis>
</asset>
<library_effects>
	<effect id="id-fx-2" name="BladeWood-fx">
		<profile_COMMON>
			<technique sid="common">
				<blinn>
					<emission>
						<color>  0.0 0.0 0.0 1.0 </color>
					</emission>
					<ambient>
						<color>  0.0 0.0 0.0 1.0 </color>
					</ambient>
					<diffuse>
						<color>  0.48305230860490056 0.12436319774930471 0.0 1.0 </color>
					</diffuse>
					<specular>
						<color>  0.5 0.5 0.5 1.0 </color>
					</specular>
					<shininess>
						<float>50</float>
					</shininess>
					<reflective>
						<color>  1.0 1.0 1.0 1.0 </color>
					</reflective>
					<index_of_refraction>
						<float>4.0</float>
					</index_of_refraction>
				</blinn>
				<extra>
					<technique profile="FCOLLADA">
					</technique>
					<technique profile="GOOGLEEARTH">
						<double_sided>0</double_sided>
					</technique>
				</extra>
			</technique>
		</profile_COMMON>
	</effect>
	<effect id="id-fx-6" name="HouseBeam-fx">
		<profile_COMMON>
			<technique sid="common">
				<blinn>
					<emission>
						<color>  0.0 0.0 0.0 1.0 </color>
					</emission>
					<ambient>
						<color>  0.0 0.0 0.0 1.0 </color>
					</ambient>
					<diffuse>
						<color>  0.041774261620257214 0.012076018930614274 0.0008818362039601235 1.0 </color>
					</diffuse>
					<specular>
						<color>  0.5 0.5 0.5 1.0 </color>
					</specular>
					<shininess>
						<float>50</float>
					</shininess>
					<reflective>
						<color>  1.0 1.0 1.0 1.0 </color>
					</reflective>
					<index_of_refraction>
						<float>4.0</float>
					</index_of_refraction>
				</blinn>
				<extra>
					<technique profile="FCOLLADA">
					</technique>
					<technique profile="GOOGLEEARTH">
						<double_sided>0</double_sided>
					</technique>
				</extra>
			</technique>
		</profile_COMMON>
	</effect>
</library_effects>
<library_materials>
	<material id="id-material-3" name="BladeWood">
		<instance_effect url="#id-fx-2"/>
	</material>
	<material id="id-material-7" name="HouseBeam">
		<instance_effect url="#id-fx-6"/>
	</material>
</library_materials>
<library_geometries>
	<geometry id="id-mesh-4" name="Blade">
		<mesh>
			<source id="id-mesh-4-positions">
				<float_array id="id-mesh-4-positions-array" count="96"> -0.213857501745224 -0.714677095413208 4.760505676269531 -0.2138575166463852 0.3999999761581421 0.5321075916290283 -0.2138575166463852 -0.3999999761581421 0.5321075916290283 -0.213857501745224 0.714677095413208 4.760505676269531 0.18614235520362854 0.3999999761581421 0.5321075916290283 -0.2138575166463852 0.3999999761581421 0.5321075916290283 0.18614235520362854 0.714677095413208 4.760505676269531 0.18614235520362854 -0.3999999761581421 0.5321075916290283 0.18614235520362854 0.3999999761581421 0.5321075916290283 0.18614235520362854 -0.714677095413208 4.760505676269531 -0.2138575166463852 -0.3999999761581421 0.5321075916290283 0.18614235520362854 -0.3999999761581421 0.5321075916290283 0.18614235520362854 0.3999999761581421 0.5321075916290283 -0.2138575166463852 -0.3999999761581421 0.5321075916290283 -0.2138575166463852 0.3999999761581421 0.5321075916290283 -0.213857501745224 0.714677095413208 4.760505676269531 0.18614235520362854 -0.714677095413208 4.760505676269531 0.18614235520362854 0.714677095413208 4.760505676269531 -0.213857501745224 -0.714677095413208 4.760505676269531 -0.213857501745224 0.714677095413208 4.760505676269531 -0.2138575166463852 0.3999999761581421 0.5321075916290283 -0.213857501745224 0.714677095413208 4.760505676269531 0.18614235520362854 0.714677095413208 4.760505676269531 0.18614235520362854 0.3999999761581421 0.5321075916290283 0.18614235520362854 0.714677095413208 4.760505676269531 0.18614235520362854 -0.714677095413208 4.760505676269531 0.18614235520362854 -0.3999999761581421 0.5321075916290283 0.18614235520362854 -0.714677095413208 4.760505676269531 -0.213857501745224 -0.714677095413208 4.760505676269531 -0.2138575166463852 -0.3999999761581421 0.5321075916290283 0.18614235520362854 -0.3999999761581421 0.5321075916290283 -0.213857501745224 -0.714677095413208 4.760505676269531</float_array>
				<technique_common>
				<accessor source="#id-mesh-4-positions-array" count="32" stride="3">
					<param name="X" type="float"/>
					<param name="Y" type="float"/>
					<param name="Z" type="float"/>
				</accessor>
				</technique_common>
			</source>
			<source id="id-mesh-4-normals">
				<float_array id="id-mesh-4-normals-array" count="96"> -0.9999999403953552 0.0 3.5240683704529374e-09 -0.9999999403953552 0.0 3.5240683704529374e-09 -0.9999999403953552 0.0 3.5240683704529374e-09 0.0 0.997242271900177 -0.07421471923589706 0.0 0.997242271900177 -0.07421471923589706 0.0 0.997242271900177 -0.07421471923589706 0.9999999403953552 0.0 0.0 0.9999999403953552 0.0 0.0 0.9999999403953552 0.0 0.0 0.0 -0.9972423315048218 -0.07421469688415527 0.0 -0.9972423315048218 -0.07421469688415527 0.0 -0.9972423315048218 -0.07421469688415527 0.0 0.0 -1.0 0.0 0.0 -1.0 0.0 0.0 -1.0 0.0 0.0 1.0 0.0 0.0 1.0 0.0 0.0 1.0 -1.0 0.0 3.5240677043191226e-09 -1.0 0.0 3.5240677043191226e-09 -1.0 0.0 3.5240677043191226e-09 0.0 0.9972423315048218 -0.07421469688415527 0.0 0.9972423315048218 -0.07421469688415527 0.0 0.9972423315048218 -0.07421469688415527 1.0 0.0 0.0 1.0 0.0 0.0 1.0 0.0 0.0 0.0 -0.997242271900177 -0.07421470433473587 0.0 -0.997242271900177 -0.07421470433473587 0.0 -0.997242271900177 -0.07421470433473587 0.0 0.0 -1.0 0.0 0.0 1.0</float_array>
				<technique_common>
				<accessor source="#id-mesh-4-normals-array" count="32" stride="3">
					<param name="X" type="float"/>
					<param name="Y" type="float"/>
					<param name="Z" type="float"/>
				</accessor>
				</technique_common>
			</source>
			<vertices id="id-mesh-4-vertices">
				<input semantic="POSITION" source="#id-mesh-4-positions"/>
			</vertices>
			<triangles count="12" material="id-trimat-5">
				<input semantic="VERTEX" source="#id-mesh-4-vertices" offset="0"/>
				<input semantic="NORMAL" source="#id-mesh-4-normals" offset="0"/>
				<p> 0 1 2 3 4 5 6 7 8 9 10 11 12 13 14 15 16 17 18 19 20 21 22 23 24 25 26 27 28 29 12 30 13 15 31 16 </p>
			</triangles>
		</mesh>
	</geometry>
	<geometry id="id-mesh-8" name="Cylinder">
		<mesh>
			<source id="id-mesh-8-positions">
				<float_array id="id-mesh-8-positions-array" count="213"> 0.0 1.0 1.0 0.7071067690849304 0.7071067690849304 -1.0 0.0 1.0 -1.0 0.7071067690849304 0.7071067690849304 1.0 1.0 -4.371138828673793e-08 -1.0 0.7071067690849304 0.7071067690849304 -1.0 1.0 -4.371138828673793e-08 1.0 0.7071067690849304 -0.7071067690849304 -1.0 1.0 -4.371138828673793e-08 -1.0 0.7071067690849304 -0.7071067690849304 1.0 -8.742277657347586e-08 -1.0 -1.0 0.7071067690849304 -0.7071067690849304 -1.0 -8.742277657347586e-08 -1.0 1.0 -0.70710688829422 -0.7071066498756409 -1.0 -8.742277657347586e-08 -1.0 -1.0 -0.70710688829422 -0.7071066498756409 1.0 -1.0 1.1924880638503055e-08 -1.0 -0.70710688829422 -0.7071066498756409 -1.0 1.0 -4.371138828673793e-08 1.0 0.0 1.0 1.0 -1.0 1.1924880638503055e-08 1.0 -1.0 1.1924880638503055e-08 1.0 -0.70710688829422 0.7071066498756409 -1.0 -1.0 1.1924880638503055e-08 -1.0 -0.70710688829422 0.7071066498756409 1.0 0.0 1.0 -1.0 -0.70710688829422 0.7071066498756409 -1.0 0.7071067690849304 -0.7071067690849304 -1.0 -0.70710688829422 -0.7071066498756409 -1.0 -0.70710688829422 0.7071066498756409 -1.0 0.7071067690849304 0.7071067690849304 1.0 0.7071067690849304 0.7071067690849304 1.0 1.0 -4.371138828673793e-08 1.0 1.0 -4.371138828673793e-08 -1.0 1.0 -4.371138828673793e-08 1.0 0.7071067690849304 -0.7071067690849304 1.0 0.7071067690849304 -0.7071067690849304 -1.0 0.7071067690849304 -0.7071067690849304 1.0 -8.742277657347586e-08 -1.0 1.0 -8.742277657347586e-08 -1.0 -1.0 -8.742277657347586e-08 -1.0 1.0 -0.70710688829422 -0.7071066498756409 1.0 -0.70710688829422 -0.7071066498756409 -1.0 -0.70710688829422 -0.7071066498756409 1.0 -1.0 1.1924880638503055e-08 1.0 -1.0 1.1924880638503055e-08 -1.0 1.0 -4.371138828673793e-08 1.0 0.7071067690849304 0.7071067690849304 1.0 0.0 1.0 1.0 0.0 1.0 1.0 -0.70710688829422 0.7071066498756409 1.0 -1.0 1.1924880638503055e-08 1.0 -0.70710688829422 -0.7071066498756409 1.0 -8.742277657347586e-08 -1.0 1.0 0.7071067690849304 -0.7071067690849304 1.0 0.7071067690849304 -0.7071067690849304 1.0 1.0 -4.371138828673793e-08 1.0 -1.0 1.1924880638503055e-08 1.0 -1.0 1.1924880638503055e-08 1.0 -0.70710688829422 0.7071066498756409 1.0 -0.70710688829422 0.7071066498756409 -1.0 0.0 1.0 1.0 -0.70710688829422 0.7071066498756409 -1.0 0.0 1.0 -1.0 0.7071067690849304 0.7071067690849304 -1.0 1.0 -4.371138828673793e-08 -1.0 0.7071067690849304 -0.7071067690849304 -1.0 -8.742277657347586e-08 -1.0 -1.0 -0.70710688829422 -0.7071066498756409 -1.0 -1.0 1.1924880638503055e-08 -1.0 0.7071067690849304 0.7071067690849304 -1.0</float_array>
				<technique_common>
				<accessor source="#id-mesh-8-positions-array" count="71" stride="3">
					<param name="X" type="float"/>
					<param name="Y" type="float"/>
					<param name="Z" type="float"/>
				</accessor>
				</technique_common>
			</source>
			<source id="id-mesh-8-normals">
				<float_array id="id-mesh-8-normals-array" count="213"> 0.3826834559440613 0.9238795638084412 0.0 0.3826834559440613 0.9238795638084412 0.0 0.3826834559440613 0.9238795638084412 0.0 0.9238795638084412 0.38268351554870605 0.0 0.9238795638084412 0.38268351554870605 0.0 0.9238795638084412 0.38268351554870605 0.0 0.9238795638084412 -0.3826834261417389 0.0 0.9238795638084412 -0.3826834261417389 0.0 0.9238795638084412 -0.3826834261417389 0.0 0.3826834261417389 -0.9238795638084412 0.0 0.3826834261417389 -0.9238795638084412 0.0 0.3826834261417389 -0.9238795638084412 0.0 -0.3826836347579956 -0.9238795638084412 0.0 -0.3826836347579956 -0.9238795638084412 0.0 -0.3826836347579956 -0.9238795638084412 0.0 -0.9238795638084412 -0.38268330693244934 0.0 -0.9238795638084412 -0.38268330693244934 0.0 -0.9238795638084412 -0.38268330693244934 0.0 5.960464477539063e-08 0.0 1.0 5.960464477539063e-08 0.0 1.0 5.960464477539063e-08 0.0 1.0 -0.9238795042037964 0.3826834261417389 0.0 -0.9238795042037964 0.3826834261417389 0.0 -0.9238795042037964 0.3826834261417389 0.0 -0.38268351554870605 0.9238794445991516 0.0 -0.38268351554870605 0.9238794445991516 0.0 -0.38268351554870605 0.9238794445991516 0.0 0.0 0.0 -1.0 0.0 0.0 -1.0 0.0 0.0 -1.0 0.3826834559440613 0.9238795638084412 0.0 0.9238796234130859 0.3826833963394165 0.0 0.9238796234130859 0.3826833963394165 0.0 0.9238796234130859 0.3826833963394165 0.0 0.9238795042037964 -0.38268354535102844 0.0 0.9238795042037964 -0.38268354535102844 0.0 0.9238795042037964 -0.38268354535102844 0.0 0.3826833963394165 -0.9238795638084412 0.0 0.3826833963394165 -0.9238795638084412 0.0 0.3826833963394165 -0.9238795638084412 0.0 -0.38268354535102844 -0.9238794445991516 0.0 -0.38268354535102844 -0.9238794445991516 0.0 -0.38268354535102844 -0.9238794445991516 0.0 -0.9238795042037964 -0.3826834261417389 0.0 -0.9238795042037964 -0.3826834261417389 0.0 -0.9238795042037964 -0.3826834261417389 0.0 -2.8779660965483345e-07 0.0 1.0 -2.8779660965483345e-07 0.0 1.0 -2.8779660965483345e-07 0.0 1.0 0.0 0.0 1.0 0.0 0.0 1.0 0.0 0.0 1.0 0.0 0.0 1.0 0.0 0.0 1.0 0.0 0.0 1.0 5.612128539667083e-09 0.0 0.9999999403953552 5.612128539667083e-09 0.0 0.9999999403953552 5.612128539667083e-09 0.0 0.9999999403953552 -0.9238795638084412 0.38268330693244934 0.0 -0.9238795638084412 0.38268330693244934 0.0 -0.9238795638084412 0.38268330693244934 0.0 -0.38268351554870605 0.9238794445991516 0.0 0.0 0.0 -0.9999999403953552 0.0 0.0 -0.9999999403953552 0.0 0.0 -0.9999999403953552 0.0 0.0 -0.9999999403953552 0.0 0.0 -0.9999999403953552 0.0 0.0 -0.9999999403953552 0.0 0.0 -0.9999999403953552 0.0 0.0 -1.0 0.0 0.0 -1.0</float_array>
				<technique_common>
				<accessor source="#id-mesh-8-normals-array" count="71" stride="3">
					<param name="X" type="float"/>
					<param name="Y" type="float"/>
					<param name="Z" type="float"/>
				</accessor>
				</technique_common>
			</source>
			<vertices id="id-mesh-8-vertices">
				<input semantic="POSITION" source="#id-mesh-8-positions"/>
			</vertices>
			<triangles count="28" material="id-trimat-9">
				<input semantic="VERTEX" source="#id-mesh-8-vertices" offset="0"/>
				<input semantic="NORMAL" source="#id-mesh-8-normals" offset="0"/>
				<p> 0 1 2 3 4 5 6 7 8 9 10 11 12 13 14 15 16 17 18 19 20 21 22 23 24 25 26 27 28 29 0 30 1 31 32 33 34 35 36 37 38 39 40 41 42 43 44 45 46 47 48 49 50 51 51 52 53 53 54 51 55 56 57 58 59 60 24 61 25 62 63 64 64 65 66 66 67 68 28 69 29 29 70 27 </p>
			</triangles>
		</mesh>
	</geometry>
</library_geometries>
<library_visual_scenes>
	<visual_scene id="id-scene-1" name="scene">
		<node id="Blade1" name="Blade1" type="NODE">
			<matrix sid="transform"> 1.0 0.0 0.0 1.3492385149002075 0.0 1.0 0.0 0.0 0.0 0.0 1.0 0.0 0.0 0.0 0.0 1.0  </matrix>
			<instance_geometry url="#id-mesh-4">
				<bind_material>
					<technique_common>
						<instance_material symbol="id-trimat-5" target="#id-material-3"/>
					</technique_common>
				</bind_material>
			</instance_geometry>
		</node>
		<node id="Blade2" name="Blade2" type="NODE">
			<matrix sid="transform"> 1.0 0.0 0.0 1.3492385149002075 0.0 -4.371138828673793e-08 -1.0 0.0 0.0 1.0 -4.371138828673793e-08 0.0 0.0 0.0 0.0 1.0  </matrix>
			<instance_geometry url="#id-mesh-4">
				<bind_material>
					<technique_common>
						<instance_material symbol="id-trimat-5" target="#id-material-3"/>
					</technique_common>
				</bind_material>
			</instance_geometry>
		</node>
		<node id="Blade3" name="Blade3" type="NODE">
			<matrix sid="transform"> 1.0 0.0 0.0 1.3492385149002075 0.0 -1.0 3.2584136988589307e-07 0.0 0.0 -3.2584136988589307e-07 -1.0 0.0 0.0 0.0 0.0 1.0  </matrix>
			<instance_geometry url="#id-mesh-4">
				<bind_material>
					<technique_common>
						<instance_material symbol="id-trimat-5" target="#id-material-3"/>
					</technique_common>
				</bind_material>
			</instance_geometry>
		</node>
		<node id="Blade4" name="Blade4" type="NODE">
			<matrix sid="transform"> 1.0 0.0 0.0 1.3492385149002075 0.0 4.887620548288396e-07 1.0 0.0 0.0 -1.0 4.887620548288396e-07 0.0 0.0 0.0 0.0 1.0  </matrix>
			<instance_geometry url="#id-mesh-4">
				<bind_material>
					<technique_common>
						<instance_material symbol="id-trimat-5" target="#id-material-3"/>
					</technique_common>
				</bind_material>
			</instance_geometry>
		</node>
		<node id="Cylinder" name="Cylinder" type="NODE">
			<matrix sid="transform"> 4.004277442959392e-08 0.0 0.5303826332092285 0.9976266622543335 0.0 0.5303826332092285 0.0 0.0 -0.5303826332092285 0.0 4.004277442959392e-08 0.0 0.0 0.0 0.0 1.0  </matrix>
			<instance_geometry url="#id-mesh-8">
				<bind_material>
					<technique_common>
						<instance_material symbol="id-trimat-9" target="#id-material-7"/>
					</technique_common>
				</bind_material>
			</instance_geometry>
		</node>
	</visual_scene>
</library_visual_scenes>
<library_animations>
</library_animations>
<scene>
	<instance_visual_scene url="#id-scene-1" />
</scene>
</COLLADA>
