[gd_scene load_steps=5 format=2]

[ext_resource path="res://Walls.gd" type="Script" id=1]

[sub_resource type="ParticlesMaterial" id=3]
emission_shape = 2
emission_box_extents = Vector3( 5, 1, 25 )
gravity = Vector3( -9.8, 0, 0 )
initial_velocity = 2.0
angular_velocity = -2.40225e-11

[sub_resource type="SpatialMaterial" id=4]
albedo_color = Color( 1, 0.815686, 0.815686, 1 )

[sub_resource type="PlaneMesh" id=2]
material = SubResource( 4 )

[node name="Walls" type="Spatial"]
script = ExtResource( 1 )

[node name="ParticlesR" type="Particles" parent="."]
transform = Transform( -4.37114e-08, -1, 0, 1, -4.37114e-08, 0, 0, 0, 1, 9, 4.245, 0 )
amount = 100
lifetime = 2.0
preprocess = 2.0
visibility_aabb = AABB( -4, -0.999021, -25.0792, 8, 1.99804, 50.1584 )
process_material = SubResource( 3 )
draw_pass_1 = SubResource( 2 )

[node name="ParticlesL" type="Particles" parent="."]
transform = Transform( -4.37114e-08, 1, 0, 1, 4.37114e-08, 0, 0, 0, 1, -9, 4.245, 0 )
amount = 100
lifetime = 2.0
preprocess = 2.0
visibility_aabb = AABB( -4, -0.999021, -25.0792, 8, 1.99804, 50.1584 )
process_material = SubResource( 3 )
draw_pass_1 = SubResource( 2 )
